…
trashwheel_data
```

    ## # A tibble: 344 x 14
    ##    dumpster month  year date                weight_tons volume_cubic_ya…
    ##       <dbl> <chr> <dbl> <dttm>                    <dbl>            <dbl>
    ##  1        1 May    2014 2014-05-16 00:00:00        4.31               18
    ##  2        2 May    2014 2014-05-16 00:00:00        2.74               13
    ##  3        3 May    2014 2014-05-16 00:00:00        3.45               15
    ##  4        4 May    2014 2014-05-17 00:00:00        3.1                15
    ##  5        5 May    2014 2014-05-17 00:00:00        4.06               18
    ##  6        6 May    2014 2014-05-20 00:00:00        2.71               13
    ##  7        7 May    2014 2014-05-21 00:00:00        1.91                8
    ##  8        8 May    2014 2014-05-28 00:00:00        3.7                16
    ##  9        9 June   2014 2014-06-05 00:00:00        2.52               14
    ## 10       10 June   2014 2014-06-11 00:00:00        3.76               18
    ## # … with 334 more rows, and 8 more variables: plastic_bottles <dbl>,
    ## #   polystyrene <dbl>, cigarette_butts <dbl>, glass_bottles <dbl>,
    ## #   grocery_bags <dbl>, chip_bags <dbl>, sports_balls <int>,
    ## #   homes_powered <dbl>
…
``` r
# combine precipitation datasets
combined_precipitation = 
  rbind(precipitation_2017, precipitation_2018) 

combined_precipitation
```

    ## # A tibble: 24 x 3
    ##    month     total  year
    ##    <chr>     <dbl> <dbl>
    ##  1 January    2.34  2017
    ##  2 February   1.46  2017
    ##  3 March      3.57  2017
    ##  4 April      3.99  2017
    ##  5 May        5.64  2017
    ##  6 June       1.4   2017
    ##  7 July       7.09  2017
    ##  8 August     4.44  2017
    ##  9 September  1.95  2017
    ## 10 October    0     2017
    ## # … with 14 more rows
…
         month = as.integer(month),
         day = as.integer(day)) %>% 
  # replace month number with month name
  mutate(month = month.abb[month]) %>%
  # create a president variable taking values of gop and dem
  # recode the prez_gop variable
  mutate(president = recode(prez_gop, "0" = "Democrat", "1" = "Republican", "2" = "Republican")) %>% 
  # remove prez_gop, prez_dem and the day variable
  select(-prez_gop, -prez_dem, -day) %>% 
  # organize so that year and month are the leading columns
  select(year, month, everything()) 
pols_month
```

    ## # A tibble: 822 x 9
    ##     year month gov_gop sen_gop rep_gop gov_dem sen_dem rep_dem president
    ##    <int> <chr>   <dbl>   <dbl>   <dbl>   <dbl>   <dbl>   <dbl> <chr>    
    ##  1  1947 Jan        23      51     253      23      45     198 Democrat 
    ##  2  1947 Feb        23      51     253      23      45     198 Democrat 
    ##  3  1947 Mar        23      51     253      23      45     198 Democrat 
    ##  4  1947 Apr        23      51     253      23      45     198 Democrat 
    ##  5  1947 May        23      51     253      23      45     198 Democrat 
    ##  6  1947 Jun        23      51     253      23      45     198 Democrat 
    ##  7  1947 Jul        23      51     253      23      45     198 Democrat 
    ##  8  1947 Aug        23      51     253      23      45     198 Democrat 
    ##  9  1947 Sep        23      51     253      23      45     198 Democrat 
    ## 10  1947 Oct        23      51     253      23      45     198 Democrat 
    ## # … with 812 more rows
…
  mutate(month = as.integer(month),
         day = as.integer(day),
         year = as.integer(year)) %>% 
   # arrange according to year and month
  arrange(year, month) %>% 
  # replace month number with month name
  mutate(month = month.abb[month]) %>%
  # remove the day variable
  select(-day) %>% 
  # organize so that year and month are the leading columns
  select(year, month, everything())
snp
```

    ## # A tibble: 787 x 3
    ##     year month close
    ##    <int> <chr> <dbl>
    ##  1  1950 Jan    17.0
    ##  2  1950 Feb    17.2
    ##  3  1950 Mar    17.3
    ##  4  1950 Apr    18.0
    ##  5  1950 May    18.8
    ##  6  1950 Jun    17.7
    ##  7  1950 Jul    17.8
    ##  8  1950 Aug    18.4
    ##  9  1950 Sep    19.5
    ## 10  1950 Oct    19.5
    ## # … with 777 more rows
``` r
# tidy the unemployment data
unemployment = 
  read_csv("data/unemployment.csv") %>%
  # switch from wide to long format
  pivot_longer(Jan:Dec,
               names_to = "month",
               values_to = "unemployment") %>% 
  # ensure that key variables have the same name and take the same values
  rename(year = Year) %>% 
  mutate(year = as.integer(year))
unemployment
```

    ## # A tibble: 816 x 3
    ##     year month unemployment
    ##    <int> <chr>        <dbl>
    ##  1  1948 Jan            3.4
    ##  2  1948 Feb            3.8
    ##  3  1948 Mar            4  
    ##  4  1948 Apr            3.9
    ##  5  1948 May            3.5
    ##  6  1948 Jun            3.6
    ##  7  1948 Jul            3.6
    ##  8  1948 Aug            3.9
    ##  9  1948 Sep            3.8
    ## 10  1948 Oct            3.7
    ## # … with 806 more rows

``` r
# join the datasets
# merge snp into pols
pols_snp = full_join(pols_month, snp, by = c("month", "year")) 
pols_snp
```

    ## # A tibble: 823 x 10
    ##     year month gov_gop sen_gop rep_gop gov_dem sen_dem rep_dem president
    ##    <int> <chr>   <dbl>   <dbl>   <dbl>   <dbl>   <dbl>   <dbl> <chr>    
    ##  1  1947 Jan        23      51     253      23      45     198 Democrat 
    ##  2  1947 Feb        23      51     253      23      45     198 Democrat 
    ##  3  1947 Mar        23      51     253      23      45     198 Democrat 
    ##  4  1947 Apr        23      51     253      23      45     198 Democrat 
    ##  5  1947 May        23      51     253      23      45     198 Democrat 
    ##  6  1947 Jun        23      51     253      23      45     198 Democrat 
    ##  7  1947 Jul        23      51     253      23      45     198 Democrat 
    ##  8  1947 Aug        23      51     253      23      45     198 Democrat 
    ##  9  1947 Sep        23      51     253      23      45     198 Democrat 
    ## 10  1947 Oct        23      51     253      23      45     198 Democrat 
    ## # … with 813 more rows, and 1 more variable: close <dbl>

``` r
# merge unemployment into pols_snp
final_dataset = full_join(pols_snp, unemployment, by = c("month", "year"))
final_dataset
```

    ## # A tibble: 828 x 11
    ##     year month gov_gop sen_gop rep_gop gov_dem sen_dem rep_dem president
    ##    <int> <chr>   <dbl>   <dbl>   <dbl>   <dbl>   <dbl>   <dbl> <chr>    
    ##  1  1947 Jan        23      51     253      23      45     198 Democrat 
    ##  2  1947 Feb        23      51     253      23      45     198 Democrat 
    ##  3  1947 Mar        23      51     253      23      45     198 Democrat 
    ##  4  1947 Apr        23      51     253      23      45     198 Democrat 
    ##  5  1947 May        23      51     253      23      45     198 Democrat 
    ##  6  1947 Jun        23      51     253      23      45     198 Democrat 
    ##  7  1947 Jul        23      51     253      23      45     198 Democrat 
    ##  8  1947 Aug        23      51     253      23      45     198 Democrat 
    ##  9  1947 Sep        23      51     253      23      45     198 Democrat 
    ## 10  1947 Oct        23      51     253      23      45     198 Democrat 
    ## # … with 818 more rows, and 2 more variables: close <dbl>,
    ## #   unemployment <dbl>
…
popular_baby_names
```

    ## # A tibble: 12,181 x 6
    ##    year_of_birth gender ethnicity              childs_first_na… count  rank
    ##            <dbl> <chr>  <chr>                  <chr>            <dbl> <dbl>
    ##  1          2016 FEMALE ASIAN AND PACIFIC ISL… Olivia             172     1
    ##  2          2016 FEMALE ASIAN AND PACIFIC ISL… Chloe              112     2
    ##  3          2016 FEMALE ASIAN AND PACIFIC ISL… Sophia             104     3
    ##  4          2016 FEMALE ASIAN AND PACIFIC ISL… Emily               99     4
    ##  5          2016 FEMALE ASIAN AND PACIFIC ISL… Emma                99     4
    ##  6          2016 FEMALE ASIAN AND PACIFIC ISL… Mia                 79     5
    ##  7          2016 FEMALE ASIAN AND PACIFIC ISL… Charlotte           59     6
    ##  8          2016 FEMALE ASIAN AND PACIFIC ISL… Sarah               57     7
    ##  9          2016 FEMALE ASIAN AND PACIFIC ISL… Isabella            56     8
    ## 10          2016 FEMALE ASIAN AND PACIFIC ISL… Hannah              56     8
    ## # … with 12,171 more rows
…
